<?xml version="1.0" encoding="utf-8"?>
<!-- Generator: Adobe Illustrator 21.0.0, SVG Export Plug-In . SVG Version: 6.00 Build 0)  -->
<svg version="1.1" id="Layer_1" xmlns="http://www.w3.org/2000/svg" xmlns:xlink="http://www.w3.org/1999/xlink" x="0px" y="0px"
	 viewBox="0 0 67.2 74.8" style="enable-background:new 0 0 67.2 74.8;" xml:space="preserve">
<style type="text/css">
	.st0{fill:#666666;}
</style>
<path class="st0" d="M62.2,19c-3.3,0-6.5,0-9.8,0c-0.1-0.6-0.3-1.4-0.5-2c-0.4-1.5-0.9-2.8-1.5-4.2C48.1,7.4,44,2.6,38.1,0.7
	c-0.7-0.2-1.5-0.4-2.2-0.5c-0.3,0-0.7-0.1-1-0.1C34.4,0,33.7,0,33.2,0c-0.4,0-0.7,0-1.1,0.1c-0.4,0.1-0.8,0.1-1.2,0.2
	C29.9,0.5,29,0.7,28.2,1c-4,1.6-6.9,4.3-9.2,7.7c-0.7,1.1-1.4,2.3-2,3.6c-0.4,0.8-0.7,1.7-1.1,2.6c-0.3,0.7-0.5,1.4-0.7,2.2
	c-0.1,0.4-0.2,0.8-0.3,1.3c0,0.2-0.1,0.4-0.1,0.7c-3.3,0-6.5,0-9.8,0C3.4,37.6,1.7,56.2,0,74.8c22.4,0,44.8,0,67.2,0
	C65.6,56.2,63.9,37.6,62.2,19z M18.5,19c0.1-0.4,0.2-0.9,0.3-1.3c0.3-1,0.6-2,1-2.9c1.5-3.5,3.6-6.6,6.5-8.7
	c0.6-0.4,1.1-0.8,1.8-1.1c1-0.6,2.1-0.9,3.4-1.2c0.4-0.1,0.8-0.1,1.3-0.2c0.2,0,0.3,0,0.5,0c3.8,0,6.1,1.2,8.2,2.8
	c3,2.2,5,5.5,6.4,9.3c0.4,1.1,0.7,2.2,1,3.3C38.7,19,28.6,19,18.5,19z"/>
</svg>
